<svg xmlns="http://www.w3.org/2000/svg" width="337.728" height="291.933" viewBox="0 0 337.728 291.933">
  <g id="No_result_found" data-name="No result found" transform="translate(-1.001 -13)">
    <g id="Background_Complete" data-name="Background Complete" transform="translate(1.001 13)">
      <path id="Path_770" data-name="Path 770" d="M351.518,371.656c-1.211-8.25-6.638-14.622-12.141-14.222a7.306,7.306,0,0,0-5.2,2.956c-6.841-10.267-16.316-16.579-25.867-15.88a20.142,20.142,0,0,0-12.734,5.913c-6.03-15.5-16.28-26.487-26.047-26.487-5.549,0-10.039,3.556-13,9.488-7.8-10.407-17.063-16.8-26.042-16.8-14.317,0-23.714,16.239-24.527,39.051-3.6,4.295-16.647,10.307-18.29,17.5H351.7C351.645,372.675,351.592,372.175,351.518,371.656Z" transform="translate(-69.228 -107.07)" fill="#f0f0f0"/>
      <path id="Path_771" data-name="Path 771" d="M214,357.083c-1.956.163-3.659,1.425-4.987,3.457-6.115-12.031-14.822-19.413-23.811-18.6-4.584.4-8.714,2.9-12.157,6.938-.016.023-.013,0-.013,0-5.17-18.128-14.471-30.977-23.661-30.977-5.231,0-9.56,4.158-12.514,11.1-7-12.194-15.513-19.67-23.964-19.67-10.474,0-18.461,11.494-22.187,29.178-3.547-5.139-7.612-8.176-11.649-8.176-5.594,0-9.915,5.817-12.126,14.928a8.249,8.249,0,0,0-1.5.14c-8.98,1.519-15.694,13.293-15.522,26.749H224.8C223.568,363.274,218.914,356.639,214,357.083Z" transform="translate(-49.906 -106.047)" fill="#f0f0f0"/>
      <circle id="Ellipse_38" data-name="Ellipse 38" cx="37.499" cy="37.499" r="37.499" transform="translate(214.349 98.072) rotate(-13.282)" fill="#f5f5f5"/>
      <path id="Path_772" data-name="Path 772" d="M423.672,127.2c-1.395-4.151-5.857-6.976-12.022-6.976-8.007,0-16.175,4.764-19.424,11.022a9.744,9.744,0,0,0-4.034-.8c-5.461,0-11.034,3.62-12.45,8.077a7.264,7.264,0,0,0-.278,1.232h53.753a10.727,10.727,0,0,0,1.468-2.913C432.235,131.966,429.149,127.93,423.672,127.2Z" transform="translate(-95.565 -79.524)" fill="#ebebeb"/>
      <path id="Path_773" data-name="Path 773" d="M74.721,234.164c1.033-3.075,4.339-5.168,8.906-5.168,5.932,0,11.983,3.529,14.39,8.166a7.219,7.219,0,0,1,2.989-.592c4.046,0,8.174,2.681,9.224,5.984a5.376,5.376,0,0,1,.206.913H70.613a7.945,7.945,0,0,1-1.088-2.158C68.378,237.7,70.665,234.707,74.721,234.164Z" transform="translate(-52.616 -94.78)" fill="#f5f5f5"/>
      <path id="Path_774" data-name="Path 774" d="M359.478,76.961a13.875,13.875,0,0,1,9.613-4.075c4.678,0,7.68,2.783,7.254,6.439A8.018,8.018,0,0,1,379,78.858c3.19,0,5.1,2.114,4.274,4.718a4.976,4.976,0,0,1-.3.72h-31.4a4.589,4.589,0,0,1,.224-1.7C352.7,79.747,356.006,77.39,359.478,76.961Z" transform="translate(-92.214 -72.886)" fill="#f5f5f5"/>
      <path id="Path_775" data-name="Path 775" d="M160.581,86.42a8.844,8.844,0,0,1,6.128-2.6c2.982,0,4.9,1.774,4.624,4.1a5.111,5.111,0,0,1,1.691-.3c2.034,0,3.252,1.348,2.725,3.007a3.148,3.148,0,0,1-.188.459H155.545a2.923,2.923,0,0,1,.143-1.085A5.957,5.957,0,0,1,160.581,86.42Z" transform="translate(-64.721 -74.42)" fill="#f5f5f5"/>
      <path id="Path_776" data-name="Path 776" d="M137.033,166.821a10.559,10.559,0,0,0-1.179.066c-.789-3.459-4.262-5.87-9.194-5.87a16.343,16.343,0,0,0-3.942.493c-1.266-4.407-5.86-7.434-12.284-7.434-7.835,0-15.821,4.507-19.315,10.527-4.778.776-9.235,4.064-10.486,8a7.352,7.352,0,0,0-.281,1.247H143.34l.016-.05C144.58,169.947,141.747,166.821,137.033,166.821Z" transform="translate(-54.176 -84.273)" fill="#ebebeb"/>
      <path id="Path_777" data-name="Path 777" d="M241.341,208.055l4.558-2.83,4.584,3.74-.867,85.922h-7.433Z" transform="translate(-33.848 -28.782)" fill="#e6e6e6"/>
      <path id="Path_778" data-name="Path 778" d="M218.151,210.987l-4.558-5.762-4.583,3.74.867,85.922h7.433Z" transform="translate(-29.314 -28.782)" fill="#e6e6e6"/>
      <path id="Path_779" data-name="Path 779" d="M185.819,208.055l-4.558-2.83-4.584,3.74.867,85.922h7.433Z" transform="translate(-24.779 -28.782)" fill="#e6e6e6"/>
      <path id="Path_780" data-name="Path 780" d="M144.344,210.987l4.559-5.762,4.583,3.74-.867,85.922h-7.433Z" transform="translate(-20.244 -28.782)" fill="#e6e6e6"/>
      <path id="Path_781" data-name="Path 781" d="M370.669,208.055l4.559-2.83,4.583,3.74-.867,85.922h-7.433Z" transform="translate(-51.986 -28.782)" fill="#e6e6e6"/>
      <path id="Path_782" data-name="Path 782" d="M347.48,210.987l-4.558-5.762-4.584,3.74.867,85.922h7.433Z" transform="translate(-47.451 -28.782)" fill="#e6e6e6"/>
      <path id="Path_783" data-name="Path 783" d="M315.148,208.055l-4.559-2.83-4.583,3.74.867,85.922h7.433Z" transform="translate(-42.917 -28.782)" fill="#e6e6e6"/>
      <path id="Path_784" data-name="Path 784" d="M273.673,210.987l4.558-5.762,4.584,3.74-.867,85.922h-7.433Z" transform="translate(-38.382 -28.782)" fill="#e6e6e6"/>
      <path id="Path_785" data-name="Path 785" d="M140.894,234.415l214.913.1-.2-2.819-214.7-.481Z" transform="translate(-19.761 -32.428)" fill="#e6e6e6"/>
    </g>
    <g id="Shadow" transform="translate(5.336 285.462)">
      <ellipse id="_Path_" data-name="&lt;Path&gt;" cx="166.697" cy="9.735" rx="166.697" ry="9.735" fill="#f5f5f5"/>
    </g>
    <g id="Signpost" transform="translate(168.972 13.291)">
      <path id="Path_786" data-name="Path 786" d="M323.315,88.345h0a2.866,2.866,0,0,0-2.866,2.866V367.335a1.4,1.4,0,0,0,1.4,1.4h2.934a1.4,1.4,0,0,0,1.4-1.4V91.211A2.866,2.866,0,0,0,323.315,88.345Z" transform="translate(-256.82 -88.345)" fill="#407bff"/>
      <path id="Path_787" data-name="Path 787" d="M270.543,56.348V60l2.866-3.654Z" transform="translate(-206.914 -21.194)" opacity="0.2"/>
      <path id="Path_788" data-name="Path 788" d="M276.743,90.99v3.654l-2.866-3.654Z" transform="translate(-207.382 -26.052)" opacity="0.2"/>
      <path id="Path_789" data-name="Path 789" d="M276.743,160.275v3.654l-2.866-3.654Z" transform="translate(-207.382 -35.769)" opacity="0.2"/>
      <path id="Path_790" data-name="Path 790" d="M270.543,125.632v3.654l2.866-3.654Z" transform="translate(-206.914 -30.911)" opacity="0.2"/>
      <path id="Path_791" data-name="Path 791" d="M263.03,52.483h-60.4l-6.092-11.846,6.092-11.845h60.4Z" transform="translate(-196.535 -17.329)" fill="#407bff"/>
      <path id="Path_792" data-name="Path 792" d="M203.992,51.044l-5.208-10.126,5.208-10.126h57.633V51.044Z" transform="translate(-196.85 -17.61)" fill="#fff"/>
      <path id="Path_793" data-name="Path 793" d="M273.877,87.125h30.147l6.092-11.845-6.092-11.846H273.877Z" transform="translate(-207.382 -22.188)" fill="#407bff"/>
      <path id="Path_794" data-name="Path 794" d="M303.255,85.686l5.208-10.126-5.208-10.125H275.877V85.686Z" transform="translate(-207.663 -22.468)" fill="#fff"/>
      <path id="Path_795" data-name="Path 795" d="M265.788,121.767H222.294L216.2,109.923l6.093-11.846h43.494Z" transform="translate(-199.293 -27.046)" fill="#407bff"/>
      <path id="Path_796" data-name="Path 796" d="M223.659,120.328,218.45,110.2l5.209-10.126h40.724v20.251Z" transform="translate(-199.609 -27.327)" fill="#fff"/>
      <path id="Path_797" data-name="Path 797" d="M273.877,156.41h41.9l6.093-11.846-6.093-11.846h-41.9Z" transform="translate(-207.382 -31.905)" fill="#407bff"/>
      <path id="Path_798" data-name="Path 798" d="M315,154.971l5.209-10.126L315,134.719H275.877v20.252Z" transform="translate(-207.663 -32.185)" fill="#fff"/>
    </g>
    <g id="Character" transform="translate(74.295 67.045)">
      <path id="Path_799" data-name="Path 799" d="M169.551,325.264l5.366-2.292-3.879-13.037-5.366,2.292Z" transform="translate(-100.532 -105.866)" fill="#ffc3bd"/>
      <path id="Path_800" data-name="Path 800" d="M112.259,329.346h5.835l.3-13.513h-5.835Z" transform="translate(-87.502 -107.305)" fill="#ffc3bd"/>
      <path id="Path_801" data-name="Path 801" d="M168.1,405.7h-7.114a.509.509,0,0,0-.5.4l-1.153,5.187a.858.858,0,0,0,.854,1.038c2.289-.039,3.959-.174,6.842-.174,1.774,0,7.122.184,9.572.184,2.4,0,2.769-2.422,1.766-2.641-4.5-.983-7.884-2.34-9.323-3.634A1.415,1.415,0,0,0,168.1,405.7Z" transform="translate(-136.712 -184.333)" fill="#263238"/>
      <path id="Path_802" data-name="Path 802" d="M225.688,398.668l-5.761,2.724a.509.509,0,0,0-.279.573l1.175,5.182a.849.849,0,0,0,1.2.579c2.061-1.018,5.007-2.56,7.618-3.8,3.054-1.444,3.149-1.444,6.731-3.138,2.165-1.024,1.731-3.5.731-3.267-4.554,1.049-5.348,1.464-9.954.952A2.7,2.7,0,0,0,225.688,398.668Z" transform="translate(-151.427 -182.336)" fill="#263238"/>
      <path id="Path_803" data-name="Path 803" d="M183.987,156.25l2.4.6c.824.195,1.652.372,2.476.528a44.715,44.715,0,0,0,4.8.7,16.075,16.075,0,0,0,2.124.047,6.521,6.521,0,0,0,1.379-.178c.1-.024.091-.024-.01.084a1.316,1.316,0,0,0-.3.546c-.051.207-.02.3,0,.26a1.1,1.1,0,0,0-.025-.427,12.849,12.849,0,0,0-1.717-3.7,46.777,46.777,0,0,0-2.932-4.084c-2.145-2.7-4.542-5.406-6.928-8L188,139.2a61.544,61.544,0,0,1,9.071,6.855,41.439,41.439,0,0,1,4.074,4.287,18.619,18.619,0,0,1,3.407,5.883,9.655,9.655,0,0,1,.444,2.256,7.44,7.44,0,0,1-.378,2.947,6.983,6.983,0,0,1-1.819,2.78,8.27,8.27,0,0,1-2.317,1.52,13.2,13.2,0,0,1-3.931,1,24.352,24.352,0,0,1-3.332.1,39.846,39.846,0,0,1-6.021-.7c-.965-.186-1.917-.392-2.864-.619-.965-.226-1.847-.468-2.879-.788Z" transform="translate(-142.112 -119.321)" fill="#ffc3bd"/>
      <path id="Path_804" data-name="Path 804" d="M173.72,164.178c3.045-4.675,19.394-1.235,19.394-1.235l.935,14.161a132.126,132.126,0,0,0-13.378-1.286C176.061,175.613,169.924,170.006,173.72,164.178Z" transform="translate(-139.937 -124.816)" fill="#263238"/>
      <path id="Path_805" data-name="Path 805" d="M185.965,142.184l-5.484-2.93,5.324-4.179a6.267,6.267,0,0,1,2.843,4.251Z" transform="translate(-141.875 -118.315)" fill="#ffc3bd"/>
      <path id="Path_806" data-name="Path 806" d="M126.155,62.606l5.344-3.315,3.322,2.192L129.5,65.661Z" transform="translate(-90.892 -44.722)" fill="#ffc3bd"/>
      <path id="Path_807" data-name="Path 807" d="M171.038,309.94l2,6.72-5.369,2.292-2-6.72Z" transform="translate(-100.531 -105.868)" opacity="0.2"/>
      <path id="Path_808" data-name="Path 808" d="M112.6,315.837h5.837l-.157,6.965h-5.837Z" transform="translate(-87.547 -107.306)" opacity="0.2"/>
      <path id="Path_809" data-name="Path 809" d="M153.311,181.271l-7.113,10.26a4.183,4.183,0,0,0-.742,2.213l-.556,13.617a4.183,4.183,0,0,0,.922,2.8L148.916,214a4.184,4.184,0,0,0,3.488,1.552l9.353-.516a4.184,4.184,0,0,0,3.953-4.189l-.078-27.331a4.184,4.184,0,0,0-4.3-4.17l-4.7.129A4.184,4.184,0,0,0,153.311,181.271Z" transform="translate(-133.195 -129.114)" fill="#407bff"/>
      <path id="Path_810" data-name="Path 810" d="M153.311,181.271l-7.113,10.26a4.183,4.183,0,0,0-.742,2.213l-.556,13.617a4.183,4.183,0,0,0,.922,2.8L148.916,214a4.184,4.184,0,0,0,3.488,1.552l9.353-.516a4.184,4.184,0,0,0,3.953-4.189l-.078-27.331a4.184,4.184,0,0,0-4.3-4.17l-4.7.129A4.184,4.184,0,0,0,153.311,181.271Z" transform="translate(-133.195 -129.114)" opacity="0.3"/>
      <path id="Path_811" data-name="Path 811" d="M4.127,0h20.6a4.127,4.127,0,0,1,4.127,4.127v5.81a4.127,4.127,0,0,1-4.127,4.127H4.127A4.127,4.127,0,0,1,0,9.937V4.127A4.127,4.127,0,0,1,4.127,0Z" transform="matrix(1, -0.027, 0.027, 1, 14.316, 34.878)" fill="#407bff"/>
      <path id="Path_812" data-name="Path 812" d="M4.127,0h20.6a4.127,4.127,0,0,1,4.127,4.127v5.81a4.127,4.127,0,0,1-4.127,4.127H4.127A4.127,4.127,0,0,1,0,9.937V4.127A4.127,4.127,0,0,1,4.127,0Z" transform="matrix(1, -0.027, 0.027, 1, 14.316, 34.878)" opacity="0.3"/>
      <path id="Path_813" data-name="Path 813" d="M147.535,163.108a131.157,131.157,0,0,1,3.321,19.265c.46,4.532.705,8.853.832,12.77.3,9.18-.042,16.168.183,18.542,4.568-.224,21.784-1.074,31.171-1.541.924-45.861-2.843-50.362-2.843-50.362a60.921,60.921,0,0,0-7.432-1.071c-.527-.045-1.063-.074-1.607-.1a115.067,115.067,0,0,0-13.253.654c-.835.082-1.68.187-2.5.3C151.224,162.166,147.535,163.108,147.535,163.108Z" transform="translate(-133.838 -124.545)" fill="#263238"/>
      <path id="Path_814" data-name="Path 814" d="M181.377,181.37a38.981,38.981,0,0,0-22.552,1.7l-.635-2.184a41.122,41.122,0,0,1,23.79-1.8Z" transform="translate(-136.438 -128.814)" fill="#407bff"/>
      <path id="Path_815" data-name="Path 815" d="M155.83,175.228a24.554,24.554,0,0,1-4.125,13.411c-.069-.89-.154-1.789-.246-2.7-.347-3.405-.812-6.933-1.45-10.5Z" transform="translate(-134.442 -128.11)" opacity="0.2"/>
      <path id="Path_816" data-name="Path 816" d="M176.164,160.791c-.286-.031-.581-.054-.875-.077-.527-.046-1.061-.077-1.6-.1a114.711,114.711,0,0,0-13.254.658c-.836.077-1.68.186-2.5.3-.015,0-.039.008-.054.008l.6.929c.921,1.455,3.871,4.9,11.411,5.574l.72.062.627-.356c1.618-.921,4.242-3.151,4.831-5.528a3.937,3.937,0,0,0,.1-1.47Z" transform="translate(-136.362 -124.544)" fill="#fff"/>
      <path id="Path_817" data-name="Path 817" d="M153.842,129.768c-2.942-1.467-6.292,2.76-5.292,5.4a4.009,4.009,0,0,1,3.981,1.561s-1.959,2.406-.782,5.019c2.387-1.484,4.833.581,4.833.581a3.805,3.805,0,0,0,.9,4.161c.632-1.71,3.023-.161,3.995-1.52,1.575-2.2-.241-4.563-.241-4.563l-.659-1.094C160.112,134.138,158.418,132.05,153.842,129.768Z" transform="translate(-134.042 -116.947)" fill="#263238"/>
      <path id="Path_818" data-name="Path 818" d="M161.829,141.661c1.047,4.222,2.269,11.993-.573,14.986,1.184,1.865,4.216,4.015,9.655,4.5,1.936-1.1,4.483-3.774,3.6-5.154-4.811-.9-4.863-4.433-4.2-7.787Z" transform="translate(-137.186 -119.922)" fill="#ffc3bd"/>
      <path id="Path_819" data-name="Path 819" d="M181.776,160.889c.34,2.831,2.817,21.685,9.309,29.744a.381.381,0,0,0,.678-.239c0-1.652,0-3.216,0-3.5a.3.3,0,0,0-.012-.089,130.006,130.006,0,0,1-3.981-25.346.36.36,0,0,0-.189-.312,11.455,11.455,0,0,0-5.492-.677.373.373,0,0,0-.317.418Z" transform="translate(-142.191 -124.49)" fill="#407bff"/>
      <path id="Path_820" data-name="Path 820" d="M166.555,145.191l5.018,3.869a13.66,13.66,0,0,0-.292,2.372c-1.83-.173-4.423-2.043-4.71-3.935a6.4,6.4,0,0,1-.016-2.307Z" transform="translate(-138.455 -120.783)" opacity="0.2"/>
      <path id="Path_821" data-name="Path 821" d="M173.664,129.113c1.567.162,3.857-5.067,1.247-8.8-2.408-3.44-7.161.129-7.763.774S168.051,128.533,173.664,129.113Z" transform="translate(-138.593 -114.355)" fill="#263238"/>
      <path id="Path_822" data-name="Path 822" d="M158.309,130.941c1.455,5.606,2.021,8.96,5.454,11.314,5.164,3.54,11.661-.423,11.91-6.351.225-5.335-2.192-13.606-8.185-14.781a7.9,7.9,0,0,0-9.179,9.818Z" transform="translate(-136.399 -114.874)" fill="#ffc3bd"/>
      <path id="Path_823" data-name="Path 823" d="M159.314,136.968c1.567.162,2.107-6.989,1.247-8.8s-7.317.013-7.763.774C150.3,133.2,153.7,136.388,159.314,136.968Z" transform="translate(-134.92 -116.443)" fill="#263238"/>
      <path id="Path_824" data-name="Path 824" d="M171.692,115.971c-.231-2.161-2.774-3.322-5.5-3.015-.129,1.593-2.757,2.794-2.757,2.794a6.82,6.82,0,0,0-5.723-1.327c.172,2.419-2.1,4.279-2.1,4.279a4.589,4.589,0,0,0-4.774,1.247c1.948.921-1.23,2.955.544,5.214,2.015,2.566,5.58,1.109,5.58,1.109l1.521-.8C165.874,124.633,172.3,121.643,171.692,115.971Z" transform="translate(-134.641 -112.907)" fill="#263238"/>
      <path id="Path_825" data-name="Path 825" d="M176.414,141.208l0,0a11.959,11.959,0,0,1-3.766,1.816.137.137,0,0,1-.173-.119.189.189,0,0,1,.146-.194,11.653,11.653,0,0,0,3.613-1.742.163.163,0,0,1,.223.031.148.148,0,0,1-.04.207Z" transform="translate(-139.922 -119.746)" fill="#263238"/>
      <path id="Path_826" data-name="Path 826" d="M156.369,140.9a5.507,5.507,0,0,0,3.832,1.729c1.93.046,2.421-1.794,1.489-3.368-.839-1.416-2.855-3.147-4.6-2.442a2.472,2.472,0,0,0-.721,4.08Z" transform="translate(-135.802 -118.7)" fill="#ffc3bd"/>
      <path id="Path_827" data-name="Path 827" d="M200.2,292.258c-3.067-17.543-12.306-63.487-12.306-63.487L167.4,229.786s14.042,51.51,18.1,66.475,18.123,57.666,18.123,57.666l8.934-4.22S203.388,310.5,200.2,292.258Z" transform="translate(-138.684 -141.172)" fill="#407bff"/>
      <path id="Path_828" data-name="Path 828" d="M177.464,253.015l-2.88,2.609c2.47,9.089,5.4,19.857,7.927,29.124C183.177,274.281,181.931,258.55,177.464,253.015Z" transform="translate(-140.437 -147.086)" opacity="0.2"/>
      <path id="Path_829" data-name="Path 829" d="M175.846,229.335s-4.1,48.825-4.619,65.915c-.567,18.715-2.474,60.208-2.474,60.208H158.065s-1.639-37.954-2-56.317c-.412-20.791-2.788-68.686-2.788-68.686Z" transform="translate(-135.239 -141.31)" fill="#407bff"/>
      <path id="Path_830" data-name="Path 830" d="M120.446,322.28H108.717l-.528-3.76,13.212-.245Z" transform="translate(-86.509 -107.901)" fill="#263238"/>
      <path id="Path_831" data-name="Path 831" d="M174.138,314.454l-10.083,4.768-2.164-3.384,11.49-5.455Z" transform="translate(-99.609 -105.976)" fill="#263238"/>
      <path id="Path_832" data-name="Path 832" d="M170.182,133.73c.09.462.408.789.71.73s.474-.481.384-.943-.408-.789-.71-.73S170.092,133.269,170.182,133.73Z" transform="translate(-139.357 -117.755)" fill="#263238"/>
      <path id="Path_833" data-name="Path 833" d="M177.088,132.384c.09.462.408.789.71.73s.474-.481.384-.943-.408-.789-.71-.73S177,131.923,177.088,132.384Z" transform="translate(-141.042 -117.427)" fill="#263238"/>
      <path id="Path_834" data-name="Path 834" d="M174.96,133.423a16.849,16.849,0,0,0,2.977,3.521,2.64,2.64,0,0,1-2.211.74Z" transform="translate(-140.529 -117.912)" fill="#ed847e"/>
      <path id="Path_835" data-name="Path 835" d="M170.4,130.485a.276.276,0,0,0-.277.085,2.2,2.2,0,0,1-1.834.789.277.277,0,0,0-.313.234.272.272,0,0,0,.234.313,2.742,2.742,0,0,0,2.329-.971.277.277,0,0,0-.138-.45Z" transform="translate(-138.824 -117.193)" fill="#263238"/>
      <path id="Path_836" data-name="Path 836" d="M178.851,126.753a.277.277,0,0,0,.1-.483,2.733,2.733,0,0,0-2.466-.535.277.277,0,0,0-.173.35.281.281,0,0,0,.349.174h0a2.195,2.195,0,0,1,1.948.445.276.276,0,0,0,.246.049Z" transform="translate(-140.854 -116.013)" fill="#263238"/>
      <path id="Path_841" data-name="Path 841" d="M149.23,173.617l-1.691,2.315c-.572.793-1.134,1.6-1.684,2.409-1.111,1.616-2.178,3.256-3.22,4.9q-1.534,2.481-2.905,5c-.872,1.69-1.7,3.381-2.372,5.078-.008.019-.03.069-.026.064l.006-.011a.055.055,0,0,0,0-.025c0-.008-.021-.059-.015-.029s-.04.026-.03.133a.933.933,0,0,1-.014.124c0,.048.011.119.013.179l.007.19.038.231a10.968,10.968,0,0,0,.644,2.2,38.346,38.346,0,0,0,2.487,4.979c.963,1.682,2.025,3.353,3.121,5.018,1.075,1.672,2.25,3.335,3.37,4.952l-3.213,2.979a68.864,68.864,0,0,1-8.786-9.2,38.092,38.092,0,0,1-3.7-5.6,18.73,18.73,0,0,1-1.443-3.55l-.139-.515-.108-.568c-.032-.194-.069-.374-.092-.581l-.048-.642a8.447,8.447,0,0,1,.037-1.4,5.6,5.6,0,0,1,.136-.779l.094-.4c.034-.138.071-.274.087-.315a58.941,58.941,0,0,1,5.317-12c1.059-1.863,2.192-3.671,3.38-5.437q.9-1.319,1.836-2.614c.628-.88,1.251-1.689,1.984-2.6Z" transform="translate(-129.419 -126.376)" fill="#ffc3bd"/>
      <path id="Path_842" data-name="Path 842" d="M144.129,163.853c-5.49.993-10.556,14.27-10.556,14.27l11.224,9.526s3.876-6.723,7-13.222C155.2,167.349,150.78,162.651,144.129,163.853Z" transform="translate(-130.432 -125.29)" fill="#263238"/>
      <path id="Path_843" data-name="Path 843" d="M149.1,224.036l5.878-.731-2.249,7.106s-5.143-.489-5.188-3.242Z" transform="translate(-133.839 -139.839)" fill="#ffc3bd"/>
      <path id="Path_844" data-name="Path 844" d="M110.939,152.9l-2.134,5.786-4.311-1.161,2.249-7.106Z" transform="translate(-85.607 -66.953)" fill="#ffc3bd"/>
      <path id="Path_845" data-name="Path 845" d="M152.261,162.681c.636,3.158,3.369,18.277.154,30.468a.263.263,0,0,0-.008.064,14.832,14.832,0,0,0,.157,2.174.29.29,0,0,0,.473.166c1.584-1.3,7.405-6.911,7.445-18.945.031-9.578-1.445-13.793-2-15.044a.632.632,0,0,0-.68-.35l-5.016.772a.6.6,0,0,0-.519.693Z" transform="translate(-134.989 -124.69)" fill="#407bff"/>
    </g>
  </g>
</svg>
