<svg xmlns="http://www.w3.org/2000/svg" width="441.434" height="304.718" viewBox="0 0 441.434 304.718">
  <g id="upload_new_file" data-name="upload new file" transform="translate(0 -28.595)">
    <g id="Background_Complete" data-name="Background Complete" transform="translate(0 28.595)">
      <rect id="Rectangle_414" data-name="Rectangle 414" width="441.434" height="0.221" transform="translate(0 263.846)" fill="#ebebeb"/>
      <rect id="Rectangle_415" data-name="Rectangle 415" width="22.952" height="0.221" transform="translate(154.006 272.253)" fill="#ebebeb"/>
      <rect id="Rectangle_416" data-name="Rectangle 416" width="47.764" height="0.221" transform="translate(46.314 269.858)" fill="#ebebeb"/>
      <rect id="Rectangle_417" data-name="Rectangle 417" width="23.235" height="0.221" transform="translate(129.887 280.452)" fill="#ebebeb"/>
      <rect id="Rectangle_418" data-name="Rectangle 418" width="34.284" height="0.221" transform="translate(227.98 278.969)" fill="#ebebeb"/>
      <rect id="Rectangle_419" data-name="Rectangle 419" width="9.442" height="0.221" transform="translate(270.124 278.969)" fill="#ebebeb"/>
      <rect id="Rectangle_420" data-name="Rectangle 420" width="48.165" height="0.221" transform="translate(349.038 275.241)" fill="#ebebeb"/>
      <rect id="Rectangle_423" data-name="Rectangle 423" width="131.003" height="5.165" transform="translate(67.913 145.042)" fill="#e6e6e6"/>
      <rect id="Rectangle_424" data-name="Rectangle 424" width="133.964" height="5.165" transform="translate(79.771 145.042)" fill="#f0f0f0"/>
      <path id="Path_689" data-name="Path 689" d="M119.124,167.789,164.8,45.113h21.561L140.685,167.789Z" transform="translate(-13.953 -30.53)" fill="#fff"/>
      <path id="Path_690" data-name="Path 690" d="M148.792,167.789,194.468,45.113h8.407L157.2,167.789Z" transform="translate(-17.428 -30.53)" fill="#fff"/>
      <rect id="Rectangle_427" data-name="Rectangle 427" width="90.588" height="120.442" transform="translate(286.091)" fill="#e6e6e6"/>
      <rect id="Rectangle_428" data-name="Rectangle 428" width="94.642" height="120.442" transform="translate(288.919)" fill="#f5f5f5"/>
      <rect id="Rectangle_429" data-name="Rectangle 429" width="104.584" height="78.787" transform="translate(292.759 109.171) rotate(-85.379)" fill="#fff"/>
      <rect id="Rectangle_430" data-name="Rectangle 430" width="104.584" height="1.94" transform="translate(369.356 115.362) rotate(-85.378)" fill="#e6e6e6"/>
      <rect id="Rectangle_431" data-name="Rectangle 431" width="50.596" height="98.415" transform="translate(337.958 165.43)" fill="#f5f5f5"/>
      <rect id="Rectangle_432" data-name="Rectangle 432" width="4.172" height="98.415" transform="translate(384.381 165.43)" fill="#f0f0f0"/>
      <rect id="Rectangle_433" data-name="Rectangle 433" width="116.501" height="41.642" transform="translate(341.857 209.881) rotate(180)" fill="#e6e6e6"/>
      <rect id="Rectangle_434" data-name="Rectangle 434" width="157.581" height="7.382" transform="translate(388.553 172.812) rotate(180)" fill="#f0f0f0"/>
      <rect id="Rectangle_435" data-name="Rectangle 435" width="50.596" height="98.415" transform="translate(180.376 165.43)" fill="#f5f5f5"/>
      <path id="Path_701" data-name="Path 701" d="M204.765,251.492h.228a12.175,12.175,0,0,1,12.175,12.175v54.882H192.59V263.667a12.175,12.175,0,0,1,12.175-12.175Z" transform="translate(-22.559 -54.703)" fill="#e6e6e6"/>
      <rect id="Rectangle_436" data-name="Rectangle 436" width="4.172" height="98.415" transform="translate(226.8 165.43)" fill="#f0f0f0"/>
      <path id="Path_702" data-name="Path 702" d="M324.673,213.155H313.757l2.656-21.246h10.916Z" transform="translate(-36.751 -47.724)" fill="#f0f0f0"/>
      <path id="Path_703" data-name="Path 703" d="M327.407,213.155H316.491l2.656-21.246h10.916Z" transform="translate(-37.072 -47.724)" fill="#f5f5f5"/>
      <path id="Path_704" data-name="Path 704" d="M328.911,202.532H317.995l1.328-10.623h10.916Z" transform="translate(-37.248 -47.724)" fill="#f0f0f0"/>
      <path id="Path_705" data-name="Path 705" d="M284,249.413h77.215a1.071,1.071,0,0,0,1.062-1.2L356.323,200.6a1.07,1.07,0,0,0-1.062-.938H278.045a1.07,1.07,0,0,0-1.062,1.2l5.951,47.606a1.071,1.071,0,0,0,1.062.938Z" transform="translate(-32.443 -97.149)" fill="#f0f0f0"/>
      <path id="Path_706" data-name="Path 706" d="M285.3,249.413h77.216a1.071,1.071,0,0,0,1.062-1.2L357.623,200.6a1.07,1.07,0,0,0-1.062-.938H279.345a1.071,1.071,0,0,0-1.062,1.2l5.951,47.606a1.07,1.07,0,0,0,1.062.938Z" transform="translate(-32.595 -97.149)" fill="#f5f5f5"/>
      <path id="Path_707" data-name="Path 707" d="M361.414,247.086l-5.57-44.558a.3.3,0,0,0-.3-.262H281.4a.3.3,0,0,0-.3.337l5.57,44.559a.3.3,0,0,0,.3.262h74.145a.3.3,0,0,0,.3-.337Z" transform="translate(-32.926 -97.453)" fill="#e6e6e6"/>
      <path id="Path_708" data-name="Path 708" d="M358.227,192.472l-19.6-45.158H321.443l19.6,45.158Z" transform="translate(-37.651 -42.501)" fill="#ebebeb"/>
      <path id="Path_709" data-name="Path 709" d="M336.472,192.472l-19.6-45.158H310.68l19.6,45.158Z" transform="translate(-36.391 -42.501)" fill="#ebebeb"/>
      <path id="Path_710" data-name="Path 710" d="M0,0H17.779V.221a1.771,1.771,0,0,1-1.771,1.771H1.771A1.771,1.771,0,0,1,0,.221V0Z" transform="translate(300.27 165.43) rotate(180)" fill="#f5f5f5"/>
      <path id="Path_711" data-name="Path 711" d="M0,0H12.061V.221A1.771,1.771,0,0,1,10.29,1.991H1.771A1.771,1.771,0,0,1,0,.221Z" transform="translate(284.548 165.43) rotate(180)" fill="#f0f0f0"/>
      <path id="Path_712" data-name="Path 712" d="M354.873,215.39H299.9l-1.486-4.413h49.3Z" transform="translate(-34.954 -49.958)" fill="#f5f5f5"/>
      <path id="Path_713" data-name="Path 713" d="M305.582,215.39H296.5l-1.229-4.413h9.081Z" transform="translate(-34.586 -49.958)" fill="#f0f0f0"/>
      <path id="Path_714" data-name="Path 714" d="M0,0H15.646a3.69,3.69,0,0,1-3.69,3.69H3.691A3.69,3.69,0,0,1,0,0H0Z" transform="translate(253.502 165.43) rotate(180)" fill="#f0f0f0"/>
      <rect id="Rectangle_437" data-name="Rectangle 437" width="15.335" height="71.275" transform="translate(94.111 263.845) rotate(180)" fill="#e0e0e0"/>
      <path id="Path_715" data-name="Path 715" d="M157.1,316.272h-62l-7.666-84.225h62Z" transform="translate(-10.242 -52.426)" fill="#e6e6e6"/>
      <path id="Path_716" data-name="Path 716" d="M160.738,316.272h-62l-7.666-84.225h62Z" transform="translate(-10.668 -52.426)" fill="#f0f0f0"/>
      <path id="Path_717" data-name="Path 717" d="M108.564,308.185,102.6,242.608h43.351l5.969,65.577Z" transform="translate(-12.017 -53.663)" fill="#fff"/>
    </g>
    <g id="Shadow" transform="translate(51.539 329.191)">
      <ellipse id="_Path_" data-name="&lt;Path&gt;" cx="171.178" cy="2.061" rx="171.178" ry="2.061" fill="#263238"/>
    </g>
    <g id="Upload_Window" data-name="Upload Window" transform="translate(86.26 57.19)">
      <rect id="Rectangle_438" data-name="Rectangle 438" width="0.883" height="11.77" transform="translate(0.332 53.933) rotate(-1.872)" fill="#407bff"/>
      <rect id="Rectangle_439" data-name="Rectangle 439" width="0.883" height="5.593" transform="translate(0 43.787) rotate(-1.872)" fill="#407bff"/>
      <path id="Path_718" data-name="Path 718" d="M110.751,244.775H279.257a6.683,6.683,0,0,0,6.7-6.93l-3.752-114.979a7.232,7.232,0,0,0-7.156-6.93H106.547a6.683,6.683,0,0,0-6.7,6.93l3.751,114.979A7.232,7.232,0,0,0,110.751,244.775Z" transform="translate(-97.954 -115.937)" fill="#407bff"/>
      <path id="Path_719" data-name="Path 719" d="M111.363,244.775H279.869a6.683,6.683,0,0,0,6.7-6.93L282.82,122.867a7.231,7.231,0,0,0-7.156-6.93H107.159a6.683,6.683,0,0,0-6.7,6.93l3.752,114.979A7.232,7.232,0,0,0,111.363,244.775Z" transform="translate(-98.026 -115.937)" fill="#407bff"/>
      <path id="Path_720" data-name="Path 720" d="M111.363,244.775H279.869a6.683,6.683,0,0,0,6.7-6.93L282.82,122.867a7.231,7.231,0,0,0-7.156-6.93H107.159a6.683,6.683,0,0,0-6.7,6.93l3.752,114.979A7.232,7.232,0,0,0,111.363,244.775Z" transform="translate(-98.026 -115.937)" fill="#fff" opacity="0.5"/>
      <path id="Path_721" data-name="Path 721" d="M275.605,119.861H107.1q-.286,0-.565.023c-4.321.355-3.7,6.906.648,6.906H275.975c4.347,0,4.542-6.552.2-6.906Q275.891,119.861,275.605,119.861Z" transform="translate(-98.393 -116.397)" fill="#407bff" opacity="0.5"/>
      <path id="Path_722" data-name="Path 722" d="M111.959,123.574a1.527,1.527,0,0,1-1.537,1.589,1.653,1.653,0,0,1-1.64-1.589,1.527,1.527,0,0,1,1.537-1.589A1.653,1.653,0,0,1,111.959,123.574Z" transform="translate(-99.001 -116.645)" fill="#fafafa"/>
      <path id="Path_723" data-name="Path 723" d="M118.08,123.574a1.527,1.527,0,0,1-1.537,1.589,1.653,1.653,0,0,1-1.64-1.589,1.527,1.527,0,0,1,1.537-1.589,1.653,1.653,0,0,1,1.64,1.589Z" transform="translate(-99.718 -116.645)" fill="#fafafa"/>
      <ellipse id="Ellipse_37" data-name="Ellipse 37" cx="1.563" cy="1.615" rx="1.563" ry="1.615" transform="matrix(0.701, -0.713, 0.713, 0.701, 19.93, 6.912)" fill="#fafafa"/>
      <path id="Path_724" data-name="Path 724" d="M115.757,235.658H276.981a2.416,2.416,0,0,0,2.43-2.512l-3.085-94.556a2.614,2.614,0,0,0-2.594-2.512H112.507a2.416,2.416,0,0,0-2.43,2.512l3.085,94.556a2.613,2.613,0,0,0,2.595,2.512Z" transform="translate(-99.153 -118.296)" fill="#fff"/>
      <g id="Group_779" data-name="Group 779" transform="translate(56.26 29.484)" opacity="0.3">
        <path id="Path_725" data-name="Path 725" d="M250.136,180.274h-2.943v-.838h2.079l-.067-2.077.836-.027Z" transform="translate(-171.474 -104.096)" fill="#407bff"/>
        <path id="Path_726" data-name="Path 726" d="M233.8,235.5H229.11v-.837H233.8Zm-9.375,0h-4.689v-.837h4.689Zm-9.376,0h-4.688v-.837h4.688Zm-9.375,0h-4.688v-.837h4.688Zm-9.375,0h-4.689v-.837H196.3Zm-9.376,0h-4.688v-.837h4.688Zm-9.375,0h-4.688v-.837h4.688Z" transform="translate(-162.767 -159.328)" fill="#407bff"/>
        <path id="Path_727" data-name="Path 727" d="M167.147,180.274H164.23l-.094-2.915.836-.027.069,2.1h2.107Z" transform="translate(-161.745 -104.096)" fill="#407bff"/>
        <path id="Path_728" data-name="Path 728" d="M163.7,218.916l-.153-4.688.836-.027.153,4.688Zm-.306-9.376-.153-4.688.836-.027.153,4.688Zm-.306-9.376-.153-4.688.836-.027.153,4.688Zm-.305-9.376-.153-4.688.836-.028.153,4.688Zm-.306-9.376-.153-4.688.836-.028.153,4.688Zm-.306-9.376-.153-4.688.836-.027.153,4.688Zm-.306-9.376-.153-4.688.836-.027.153,4.688Z" transform="translate(-161.461 -150.341)" fill="#407bff"/>
        <path id="Path_729" data-name="Path 729" d="M161.524,97.323l-.1-2.943h2.943v.837h-2.078l.067,2.078Z" transform="translate(-161.428 -94.38)" fill="#407bff"/>
        <path id="Path_730" data-name="Path 730" d="M231.014,150.17h-4.688v-.837h4.688Zm-9.375,0H216.95v-.837h4.688Zm-9.375,0h-4.689v-.837h4.688Zm-9.376,0H198.2v-.837h4.687Zm-9.375,0h-4.688v-.837h4.688Zm-9.375,0h-4.689v-.837h4.689Zm-9.376,0h-4.688v-.837h4.688Z" transform="translate(-162.441 -149.333)" fill="#407bff"/>
        <path id="Path_731" data-name="Path 731" d="M246.583,97.323l-.069-2.106h-2.107V94.38h2.917l.094,2.915Z" transform="translate(-171.148 -94.38)" fill="#407bff"/>
        <path id="Path_732" data-name="Path 732" d="M249.034,218.916l-.153-4.688.836-.027.153,4.688Zm-.306-9.376-.153-4.688.836-.027.153,4.688Zm-.305-9.376-.154-4.688.836-.028.153,4.688Zm-.306-9.376-.153-4.688.836-.028.154,4.688Zm-.306-9.376-.153-4.688.836-.027.153,4.688Zm-.306-9.376-.153-4.688.836-.027.153,4.688Zm-.306-9.376-.153-4.688.836-.027.153,4.688Z" transform="translate(-171.457 -150.341)" fill="#407bff"/>
      </g>
      <path id="Path_733" data-name="Path 733" d="M219.268,202.006H188.446a11.128,11.128,0,0,1-11.032-10.682,10.346,10.346,0,0,1,8.927-10.646,11.907,11.907,0,0,1,11.539-8.889,12.64,12.64,0,0,1,10.791,6.088,10.162,10.162,0,0,1,2.994-.446,10.767,10.767,0,0,1,10.594,9.563,8.236,8.236,0,0,1,4.679,7.083,7.632,7.632,0,0,1-7.671,7.929Zm-21.387-28.159a9.838,9.838,0,0,0-9.686,7.971l-.148.784-.8.051a8.3,8.3,0,0,0-7.778,8.6,9.053,9.053,0,0,0,8.974,8.691h30.822a5.575,5.575,0,0,0,5.614-5.8,6.156,6.156,0,0,0-3.965-5.487l-.637-.24-.029-.681a8.679,8.679,0,0,0-8.585-8.247,8.075,8.075,0,0,0-3.074.6l-.868.356-.434-.832a10.61,10.61,0,0,0-9.41-5.765Z" transform="translate(-107.04 -122.479)" fill="#407bff"/>
      <path id="Path_734" data-name="Path 734" d="M212.578,138.635l-8.5-8.233-7.963,8.233h4.66l.278,8.512H208.2l-.277-8.512Z" transform="translate(-109.231 -69.115)" fill="#407bff"/>
    </g>
    <g id="Character" transform="translate(240.563 53.406)">
      <path id="Path_735" data-name="Path 735" d="M364.695,156.8c.816,1.17,1.468,2.159,2.142,3.256.672,1.07,1.305,2.156,1.92,3.255,1.237,2.192,2.387,4.435,3.441,6.748a72.926,72.926,0,0,1,2.86,7.135,55.321,55.321,0,0,1,2.078,7.638l.342,2.014.042.251.047.322c.034.308.074.574.087.918a9.371,9.371,0,0,1,0,1.04l-.04.558-.094.615a8.846,8.846,0,0,1-.335,1.287,8.2,8.2,0,0,1-.622,1.343,7.553,7.553,0,0,1-1.949,2.228,8.8,8.8,0,0,1-3.981,1.693,13.008,13.008,0,0,1-2.88.145,17.8,17.8,0,0,1-2.344-.277,33.646,33.646,0,0,1-4.036-1.036,55.475,55.475,0,0,1-7.1-2.911,63.648,63.648,0,0,1-6.544-3.653l2.538-5.634a134.875,134.875,0,0,0,13.316,2.88,23.245,23.245,0,0,0,2.992.253,4.875,4.875,0,0,0,1.9-.211c.053-.041-.146-.1-.733.285a3.155,3.155,0,0,0-.8.874,2.937,2.937,0,0,0-.255.53,2.826,2.826,0,0,0-.133.418l-.053.284a1.266,1.266,0,0,1-.021.147c0,.046-.021.019-.021.032a.892.892,0,0,1-.034-.117l-.051-.185-.4-1.484a70.791,70.791,0,0,0-4.958-12c-1-1.991-2.09-3.958-3.2-5.911-.554-.978-1.135-1.944-1.708-2.906-.567-.937-1.188-1.964-1.7-2.771Z" transform="translate(-268.295 -109.94)" fill="#ffc3bd"/>
      <path id="Path_736" data-name="Path 736" d="M350.772,187.3l-3.827-3.817-3.81,8.488s3.6,2,6.815.542Z" transform="translate(-267.756 -113.065)" fill="#ffb573"/>
      <path id="Path_737" data-name="Path 737" d="M340.663,125.092l-2.821,7.163,4.673,4.365,3.81-8.488Z" transform="translate(-267.136 -57.709)" fill="#ffb573"/>
      <rect id="Rectangle_440" data-name="Rectangle 440" width="74.639" height="74.639" transform="translate(12.949 36.756) rotate(9.991)" fill="#407bff"/>
      <rect id="Rectangle_441" data-name="Rectangle 441" width="74.639" height="74.639" transform="translate(12.949 36.756) rotate(9.991)" fill="#fff" opacity="0.6"/>
      <rect id="Rectangle_442" data-name="Rectangle 442" width="67.375" height="67.375" transform="translate(15.896 40.963) rotate(9.991)" fill="#fff"/>
      <path id="Path_738" data-name="Path 738" d="M313.853,142.528,291.614,158.1l-10.228-14.6L264.6,155.25l-2.081,11.816,66.345,11.687,2.082-11.816Z" transform="translate(-258.314 -59.752)" fill="#407bff" opacity="0.2"/>
      <path id="Path_739" data-name="Path 739" d="M324.609,126.375c.012.587-.289,1.07-.673,1.078s-.705-.462-.717-1.049.289-1.07.673-1.078S324.6,125.788,324.609,126.375Z" transform="translate(-265.423 -106.253)" fill="#263238"/>
      <path id="Path_740" data-name="Path 740" d="M324.17,127.725a21.034,21.034,0,0,1-2.7,5.082,3.387,3.387,0,0,0,2.817.468Z" transform="translate(-265.218 -106.534)" fill="#ffc3bd"/>
      <path id="Path_741" data-name="Path 741" d="M326.711,122.6a.345.345,0,0,1-.256-.056,2.731,2.731,0,0,0-2.462-.4.345.345,0,0,1-.261-.639,3.424,3.424,0,0,1,3.114.469.345.345,0,0,1-.135.624Z" transform="translate(-265.458 -105.784)" fill="#263238"/>
      <path id="Path_742" data-name="Path 742" d="M342.262,129.052c-.372,5.417.054,16.361,4.2,19.424,0,0-1.015,4.418-10.839,5.653-10.8,1.357-5.836-4.714-5.836-4.714,5.719-2.149,5.017-6.5,3.474-10.483Z" transform="translate(-266.058 -106.689)" fill="#ffc3bd"/>
      <path id="Path_747" data-name="Path 747" d="M324.169,350.624h-7.284l-.726-16.868h7.284Z" transform="translate(-264.596 -82.151)" fill="#ffc3bd"/>
      <path id="Path_748" data-name="Path 748" d="M384.877,333.342l-6.754,1.856-8.647-15.816,6.754-1.856Z" transform="translate(-270.841 -80.25)" fill="#ffc3bd"/>
      <path id="Path_749" data-name="Path 749" d="M376.886,391.152l7.285-3.727a.636.636,0,0,1,.779.16l4.229,5.109a1.071,1.071,0,0,1-.359,1.639c-2.566,1.257-3.878,1.74-7.081,3.379-1.971,1.008-7.833,5.368-10.791,6.138-2.894.754-4.107-2.054-2.965-2.634a16.671,16.671,0,0,0,8.055-9.127A1.767,1.767,0,0,1,376.886,391.152Z" transform="translate(-270.616 -136.945)" fill="#263238"/>
      <path id="Path_750" data-name="Path 750" d="M314.7,406.859h7.955a.636.636,0,0,1,.62.5l1.439,6.474a1.059,1.059,0,0,1-1.048,1.3c-2.869-.049-7.016-.217-10.622-.217-4.217,0-7.859.23-12.8.23-2.99,0-3.82-3.023-2.569-3.3,5.7-1.246,10.351-1.38,15.275-4.416A3.372,3.372,0,0,1,314.7,406.859Z" transform="translate(-262.365 -139.229)" fill="#263238"/>
      <path id="Path_751" data-name="Path 751" d="M352.369,164.628c.759,1.957,1.6,3.865,2.438,5.654,1.452,3.094,2.9,5.8,3.951,7.666.938,1.682,1.55,2.678,1.55,2.678l15.91-7.891s-6.41-18.428-13.1-20.478C356.258,150.173,348.934,155.843,352.369,164.628Z" transform="translate(-268.735 -109.357)" fill="#263238"/>
      <path id="Path_752" data-name="Path 752" d="M360.063,168.39c-1.386,1.019-2.375,3.761-3.078,6.982.907,1.773,1.743,3.313,2.416,4.515.938,1.682,1.549,2.681,1.549,2.681l1.825-.907A35.11,35.11,0,0,0,360.063,168.39Z" transform="translate(-269.378 -111.297)" opacity="0.2"/>
      <path id="Path_753" data-name="Path 753" d="M314.379,176.187c0,2.479.06,5.205.2,8.21.357,8.17,1.249,18.352,2.955,31h38.956c.268-5.979-3.49-35.158,2.28-63.336a102.007,102.007,0,0,0-13.048-1.646,144.048,144.048,0,0,0-16.558,0,74.284,74.284,0,0,0-11.2,2.023S314.369,156.5,314.379,176.187Z" transform="translate(-264.387 -109.164)" fill="#263238"/>
      <path id="Path_754" data-name="Path 754" d="M319.423,165.828a35.271,35.271,0,0,1-1.937,3.537c-.643,1.042-1.289,2.042-1.966,3.012-1.338,1.95-2.746,3.817-4.218,5.641a81.075,81.075,0,0,1-9.83,10.312,44.626,44.626,0,0,1-6.094,4.508l-.869.507-.227.129-.319.16-.642.309a13.033,13.033,0,0,1-2.6.837,16.486,16.486,0,0,1-4.825.245,23.245,23.245,0,0,1-7.756-2.321,30.44,30.44,0,0,1-3.245-1.852,27.957,27.957,0,0,1-3.007-2.254l3.128-5.33c3.818,1,8.131,1.9,11.094,1.478a5.258,5.258,0,0,0,1.749-.488,3.263,3.263,0,0,0,.506-.327,1.108,1.108,0,0,1,.088-.086l.046-.037.126-.09.536-.377a41.161,41.161,0,0,0,4.292-3.739,91.06,91.06,0,0,0,8.026-9.305c1.262-1.656,2.486-3.351,3.655-5.048.578-.852,1.15-1.7,1.679-2.536.516-.818,1.056-1.7,1.335-2.236Z" transform="translate(-259.411 -110.37)" fill="#ffc3bd"/>
      <path id="Path_755" data-name="Path 755" d="M276.247,186.756l-6.718-3.185-.606,9.01s5.222.9,7.986-1.135Z" transform="translate(-259.063 -113.075)" fill="#ffc3bd"/>
      <path id="Path_756" data-name="Path 756" d="M260.018,130.152l2.589,6.867,5.273.611.607-9.011Z" transform="translate(-258.02 -58.123)" fill="#ffc3bd"/>
      <path id="Path_757" data-name="Path 757" d="M327.24,160.046c-.23,6.96-14.565,23-14.565,23l-15.148-9.892a81.339,81.339,0,0,1,11.039-15.486C317.973,147.856,327.515,151.692,327.24,160.046Z" transform="translate(-262.414 -109.36)" fill="#263238"/>
      <path id="Path_758" data-name="Path 758" d="M316.162,333.761l.373,8.694h7.287l-.373-8.694Z" transform="translate(-264.596 -82.151)" opacity="0.2"/>
      <path id="Path_759" data-name="Path 759" d="M376.234,317.53l-6.757,1.857,4.461,8.152,6.756-1.857Z" transform="translate(-270.841 -80.25)" opacity="0.2"/>
      <path id="Path_760" data-name="Path 760" d="M344.218,123.264c-.292,7.223-.1,11.465-3.663,15.244-5.364,5.684-14.338,2.566-16.209-4.6-1.685-6.449-.923-17.178,6.078-20.2a9.86,9.86,0,0,1,13.794,9.55Z" transform="translate(-265.466 -104.796)" fill="#ffc3bd"/>
      <path id="Path_761" data-name="Path 761" d="M329.589,125.633c-2.6-1.85-5.15-5.676-4.954-8.52-2.4-.1-4.022-4.071-2.7-6.965.834,1.864,3.7.491,4.818-.981-.6-1.422-.5-3.777,3.618-5.444-.343,1.2-.164,3.219,3.973,1.766,5.027-1.766,13.86-.589,11.271,5.4,3.542.638,8.128,7.94,4.228,11.786s-4.709,10.041-8.044,10.678S329.785,134.2,329.589,125.633Z" transform="translate(-265.217 -103.722)" fill="#263238"/>
      <path id="Path_762" data-name="Path 762" d="M346.163,111.494a6.751,6.751,0,0,1,8.066,2.267,24.62,24.62,0,0,0-8.066-2.267Z" transform="translate(-268.11 -104.571)" fill="#263238"/>
      <path id="Path_763" data-name="Path 763" d="M332.163,127.839a7.309,7.309,0,0,1-1.711,4.371c-1.377,1.6-2.886.671-3.19-1.228-.274-1.709.112-4.6,1.825-5.514C330.774,124.571,332.225,125.9,332.163,127.839Z" transform="translate(-265.887 -106.236)" fill="#ffc3bd"/>
      <path id="Path_764" data-name="Path 764" d="M333.479,224.054s-3.437,55.116,3.078,75.439c10.319,32.191,28.712,65.073,28.712,65.073l13.155-3.956S363.957,325.9,359.2,298.783c-4.274-24.36-.582-54.832-.582-74.729Z" transform="translate(-266.519 -117.817)" fill="#407bff"/>
      <path id="Path_765" data-name="Path 765" d="M332.922,237.893c3.676-1.075,6.542-.669,7.287,2.6,1.942,8.54-3.884,31.06-6.787,41.363C332.243,267.1,332.517,249.441,332.922,237.893Z" transform="translate(-266.519 -119.376)" opacity="0.2"/>
      <path id="Path_766" data-name="Path 766" d="M365.4,378.259c-.055.016,3.432,4.073,3.432,4.073l14.374-4.322-1.827-4.863Z" transform="translate(-270.364 -135.281)" fill="#263238"/>
      <path id="Path_767" data-name="Path 767" d="M316.379,224.054s-10.971,46.5-11.744,68.714c-.866,24.911,7.828,83.669,7.828,83.669H324.8s1.519-59.216,2.068-81.906c.6-24.736,15.118-70.478,15.118-70.478Z" transform="translate(-263.239 -117.817)" fill="#407bff"/>
      <path id="Path_768" data-name="Path 768" d="M310.82,391.088c-.057,0,.7,5.123.7,5.123h15.01l.406-4.572Z" transform="translate(-263.97 -137.382)" fill="#263238"/>
      <path id="Path_769" data-name="Path 769" d="M323.962,148.279c1.669-.578,14.4-2.2,23.633-1.7,5.273.281,8.246.856,10.4,1.9s-1.706,6.291-3.487,6.932c.722,2.013-3.3,4.581-5.587,5.8-.917,1.893-9.942,3.641-15.245-.424C329.6,157.661,319.2,149.93,323.962,148.279Z" transform="translate(-265.367 -108.731)" fill="#407bff"/>
    </g>
  </g>
</svg>
